{
	"label": "Items (Archives Vol. I)",
	"entries": [
		{
			"id": "Badger Botherer",
			"name": "Badger Botherer",
			"description": "<p>@Compendium[wfrp4e-archives1.archives1-journals.AKNVB3Of7B82YFT1]{Badger Rider}</p>"
		},
		{
			"id": "Badger Master",
			"name": "Badger Master",
			"description": "<p>@Compendium[wfrp4e-archives1.archives1-journals.AKNVB3Of7B82YFT1]{Badger Rider}</p>"
		},
		{
			"id": "Badger Rider",
			"name": "Badger Rider",
			"description": "<p>@Compendium[wfrp4e-archives1.archives1-journals.AKNVB3Of7B82YFT1]{Badger Rider}</p>"
		},
		{
			"id": "Badger Sergeant",
			"name": "Badger Sergeant",
			"description": "<p>@Compendium[wfrp4e-archives1.archives1-journals.AKNVB3Of7B82YFT1]{Badger Rider}</p>"
		},
		{
			"id": "Bearded Axe",
			"name": "Bearded Axe",
			"description": "<p>Favoured by many Dwarfs for use in war, the heads of these axes curve downward toward the haft. This creates a gap between the blade and the haft that is perfect for ripping weapons from unwary enemies.</p>"
		},
		{
			"id": "Blackbriar Javelin",
			"name": "Blackbriar Javelin",
			"description": "<p>Fashioned from the wood of trees whose spirits have become twisted and malign, these living weapons slowly drip a lethal poison. They are said to bring ill fortune, and this is certainly the case for those who must face them in battle.</p>"
		},
		{
			"id": "Cinderblast Bomb",
			"name": "Cinderblast Bomb",
			"description": "<p>These lethal weapons are indispensable in the tunnel fighting that goes on deep beneath the Old World as the Dwarfs desperately stave off attacks by Skaven, Goblins, and worse. These bombs are typically tossed into the midst of packed enemy forces, exploding in a blast of flame and shrapnel that is terrifying to behold.</p>"
		},
		{
			"id": "Drakefire Pistol",
			"name": "Drakefire Pistol",
			"description": "<p>A cunning example of Dwarf artifice, a Drakefire Pistol blasts targets with incendiary shot, often setting them ablaze. The particulars of its design are a carefully guarded secret of the Dwarfs, but it is doubtful if any other species could replicate their&nbsp; intricacies even if the design was understood. They are a favourite of Dwarf 's who face down the Skaven deep beneath the earth, as their foul fur burns very satisfactorily indeed.</p>"
		},
		{
			"id": "Drakefire Shot",
			"name": "Drakefire Shot",
			"description": "<p>The incendiary ammunition used in Drakefire pistols is both dangerous and rare, and truly only suited for use in the those weapons. However, it may be loaded in to any Blackpowder weapon, which will function exactly once before exploding in the users hands. Resolve this as though a Fumble was rolled on every shot.</p>"
		},
		{
			"id": "Dwarf Crossbow",
			"name": "Dwarf Crossbow",
			"description": "<p>Though the difference between Dwarf and Imperial crossbows is less pronounced that that between their Blackpowder weapons, Dwarf Crossbows are nevertheless built to much tighter tolerances than any human smith could match. As a result, they are more precise weapons.</p>"
		},
		{
			"id": "Dwarf Hammer",
			"name": "Dwarf Hammer",
			"description": "<p>Dwarfs are known for using the same hammers in the forge during peacetime and on the battlefield in times of war. These heavy tools are perfect for cracking even the thickest Orc skull.</p>"
		},
		{
			"id": "Dwarf Handgun",
			"name": "Dwarf Handgun",
			"description": "<p>Dwarfs often despair at what passes for gun smithing among the humans, whose weapons are often as dangerous to the bearer as their target. Dwarf blackpowder weapons are finely made and carefully reinforced, making them less prone to misfire and imbuing their projectiles with additional punch.</p>"
		},
		{
			"id": "Dwarf Pistol",
			"name": "Dwarf Pistol",
			"description": "<p>Dwarfs often despair at what passes for gun smithing among the humans, whose weapons are often as dangerous to the bearer as their target. Dwarf blackpowder weapons are finely made and carefully reinforced, making them less prone to misfire and imbuing their projectiles with additional punch.</p>"
		},
		{
			"id": "Eonir Spear",
			"name": "Eonir Spear",
			"description": "<p>The bane of mounted forces, these wickedly tipped spears are somewhat lighter than those used in the Empire. Their points are tempered and sharpened by methods known only to the Wood Elves, and they punch through armour with ease.</p>"
		},
		{
			"id": "Eonir War Blade",
			"name": "Eonir War Blade",
			"description": "<p>The finely made blades of the Eonir are crafted to be somewhat lighter than a typical Empire weapon, but their perfect balance lends itself to swift, precise strikes.</p>"
		},
		{
			"id": "Field Warden",
			"name": "Field Warden",
			"description": "<p>@Compendium[wfrp4e-archives1.archives1-journals.vnLLLPnNYS97hJVe]{Fieldwarden}</p>"
		},
		{
			"id": "Field Warden Captain",
			"name": "Field Warden Captain",
			"description": "<p>@Compendium[wfrp4e-archives1.archives1-journals.vnLLLPnNYS97hJVe]{Fieldwarden}</p>"
		},
		{
			"id": "Field Warden Sergeant",
			"name": "Field Warden Sergeant",
			"description": "<p>@Compendium[wfrp4e-archives1.archives1-journals.vnLLLPnNYS97hJVe]{Fieldwarden}</p>"
		},
		{
			"id": "Forest Ranger",
			"name": "Forest Ranger",
			"description": "<p>@Compendium[wfrp4e-archives1.archives1-journals.J4o6g4sjXQ8OXjIj]{Ghost Strider}</p>"
		},
		{
			"id": "Forest's Wrath",
			"name": "Forest's Wrath",
			"description": "<p>@Compendium[wfrp4e-archives1.archives1-journals.J4o6g4sjXQ8OXjIj]{Ghost Strider}</p>"
		},
		{
			"id": "Ghost Strider",
			"name": "Ghost Strider",
			"description": "<p>@Compendium[wfrp4e-archives1.archives1-journals.J4o6g4sjXQ8OXjIj]{Ghost Strider}</p>"
		},
		{
			"id": "Hold Runner",
			"name": "Hold Runner",
			"description": "<p>@Compendium[wfrp4e-archives1.archives1-journals.GBhO6rb28jKbYfEk]{Karak Ranger}</p>"
		},
		{
			"id": "Iron Skillet",
			"name": "Iron Skillet",
			"description": "<p>Despite their smaller stature, the cast iron pots, pans and skillets of the Halflings are fashioned to be heavier than one might think. Some may laugh, but more than one blade has been turned from a fatal blow by a Halfling pan. Such scratched and pitted skillets are always given pride of place in Halfling homes.</p>"
		},
		{
			"id": "Karak Mountain Strider",
			"name": "Karak Mountain Strider",
			"description": "<p>@Compendium[wfrp4e-archives1.archives1-journals.GBhO6rb28jKbYfEk]{Karak Ranger}</p>"
		},
		{
			"id": "Karak Pathkeeper",
			"name": "Karak Pathkeeper",
			"description": "<p>@Compendium[wfrp4e-archives1.archives1-journals.GBhO6rb28jKbYfEk]{Karak Ranger}</p>"
		},
		{
			"id": "Karak Ranger",
			"name": "Karak Ranger",
			"description": "<p>@Compendium[wfrp4e-archives1.archives1-journals.GBhO6rb28jKbYfEk]{Karak Ranger}</p>"
		},
		{
			"id": "Nan's Cleaver",
			"name": "Nan's Cleaver",
			"description": "<p>Halfling Cooks care for their kitchenware as carefully as the most diligent warrior cares for their blade. No wonder then that many of these weapons see use in times of war, and more than one Goblin has fallen to a cleaver that was later used to prepare a hearty post-battle stew.</p>"
		},
		{
			"id": "Novice Warden",
			"name": "Novice Warden",
			"description": "<p>@Compendium[wfrp4e-archives1.archives1-journals.vnLLLPnNYS97hJVe]{Fieldwarden}</p>"
		},
		{
			"id": "Precision Shot and Powder",
			"name": "Precision Shot and Powder",
			"description": "<p>Expertly prepared powder and carefully smoothed and rounded bullets can be combined to allow for more reliable, precise shots with any suitable Blackpowder weapon.</p>"
		},
		{
			"id": "Slayer's Axe",
			"name": "Slayer's Axe",
			"description": "<p>Slayers take great pride in their weapons, sharpening them almost ritualistically at every opportunity. The most famous of these have gained reputations almost as formidable as those who bear them. They are devastating weapons, and Slayers who wield them seem able to do so tirelessly despite their size.</p>"
		},
		{
			"id": "Starfire Shafts",
			"name": "Starfire Shafts",
			"description": "<p>Wood hewn from the Starfire tree is anathema to corruption, and arrows created from it are imbued with a fierce and blazing spirit. Those struck by arrows are often set ablaze, and their use massed use in warfare is a terrible thing to behold.</p>"
		},
		{
			"id": "Swiftshiver Shafts",
			"name": "Swiftshiver Shafts",
			"description": "<p>Cut from a wood so light and strong that they seem to leap from the bow of their own accord, it is a surprisingly easy thing for a skilled archer to knock and shoot more than one of these arrows at once.</p>"
		},
		{
			"id": "Wildwood Sword",
			"name": "Wildwood Sword",
			"description": "<p>A two-handed blade with a haft of living wood, these weapons seem to move with a will of their own, striking more quickly than such a sizable weapon would seem capable of.</p>"
		},
		{
			"id": "Windwraith",
			"name": "Windwraith",
			"description": "<p>@Compendium[wfrp4e-archives1.archives1-journals.J4o6g4sjXQ8OXjIj]{Ghost Strider}</p>"
		},
		{
			"id": "Youngblood",
			"name": "Youngblood",
			"description": "<p>Your family are considered newcomers to the Laurelorn and are treated with condescension by Eonir of the older birth kindreds. You are always considered of lower Status than other Eonir, unless they also have the Youngblood Talent. Second generation Youngbloods can lose this Talent by passing a trial to join the Forestborn Kindred.</p>"
		}
	]
}