{
	"label": "Sorts Ennemi Intérieur",
	"mapping": {	
    "sduration": {
      "path": "data.duration.value",
      "converter": "spells_duration_range_target_damage"
    },
    "srange": {
      "path": "data.range.value",
      "converter": "spells_duration_range_target_damage"
    },
    "starget": {
      "path": "data.target.value",
      "converter": "spells_duration_range_target_damage"
    },    
    "sdamage": {
      "path": "data.damage.value",
      "converter": "spells_duration_range_target_damage"
    }
  },
	"entries": [
		{
			"id": "Blast of Corruption (Tzeentch)",
			"name": "Explosion de Corruption (Tzeentch)",
			"description": "<p><span class=\"fontstyle0\">Vous focalisez une magie impie sous la forme d’une explosion corruptrice. Il s’agit d’un projectile magique avec Dégâts +5 qui cible toutes les personnes dans la Zone d’Effet. Toutes les personnes touchées par le sort doivent réussir un test d'</span><span class=\"fontstyle2\">Endurance Intermédiaire (+0)</span><span class=\"fontstyle0\">,ou gagner + 1 point de Corruption.</span></p>"
		},
		{
			"id": "Blast of Corruption (Undivided)",
			"name": "Explosion de Corruption (Undivided)",
			"description": "<p><span class=\"fontstyle0\">Vous focalisez une magie impie sous la forme d’une explosion corruptrice. Il s’agit d’un projectile magique avec Dégâts +5 qui cible toutes les personnes dans la Zone d’Effet. Toutes les personnes touchées par le sort doivent réussir un test d'</span><span class=\"fontstyle2\">Endurance Intermédiaire (+0)</span><span class=\"fontstyle0\">,ou gagner + 1 point de Corruption.</span></p>"
		},
		{
			"id": "Blue Fire of Tzeentch",
			"name": "Flamme Bleue de Tzeentch",
			"description": "<p><span class=\"fontstyle0\">Vos paroles conjurent une sphère tourbillonnante de flammes bleues étincelantes qui dévore vos ennemis. </span><em><span class=\"fontstyle2\">Flamme Bleue de Tzeentch</span></em><span class=\"fontstyle0\">est un</span><em><span class=\"fontstyle2\">projectile magique</span></em><span class=\"fontstyle0\">. . Toutes les personnes situées dans une distance de Bonus d’Initiative mètre de votre cible subissent un coup de Dégâts +3 et gagnent +1 Etat </span><em><span class=\"fontstyle2\">En Flammes </span></em><span class=\"fontstyle0\">.<br></span></p>\n<p><span class=\"fontstyle0\">Si un Personnage de taille Petite ou supérieure est amené à 0<br>Blessures par le sort, ou sous l’effet d’un Etat <em>En Flammes</em> dû à la</span><em><span class=\"fontstyle2\">Flamme Bleue de Tzeentch</span></em><span class=\"fontstyle0\">, jetez un <strong><a class=\"chat-roll\">1d10</a></strong>. Sur un résultat de 9, deux Horreurs Bleues surgissent du corps, dévorant la chair hurlante du Personnage, qui meurt sur le coup.</span></p>"
		},
		{
			"id": "Bolt of Change",
			"name": "Eclair de Changement",
			"description": "<p><span class=\"fontstyle0\">Un éclair palpitant d’énergie chaotique déchire l’air. </span><em><span class=\"fontstyle2\">Eclair de Changement </span></em><span class=\"fontstyle0\">est un</span><em><span class=\"fontstyle2\">projectile magique</span></em><span class=\"fontstyle0\">, avec Dégâts +7. Toutes les personnes touchées par le sort doivent réussir un test d’</span><strong><span class=\"fontstyle3\">Endurance Intermédiaire (+0)</span></strong><span class=\"fontstyle0\">. En cas d’échec, la cible gagne un point de corruption. En cas d’échec critique, la cible effectue un lancer sur le tableau des Mutations, et gagne le talent &nbsp;</span><span class=\"fontstyle2\">@Compendium[wfrp4e.talents.hiU7vhBOVpVI8c7C]{Chaos Magic (Tzeentch)}&nbsp; </span><span class=\"fontstyle0\">. Un Personnage touché par ce sort peut dépenser un point de Détermination pour résister à la mutation.</span>&nbsp;</p>"
		},
		{
			"id": "Bolt of Corruption (Tzeentch)",
			"name": "Eclair de Corruption (Tzeentch)",
			"description": "<p><span class=\"fontstyle0\">Vous focalisez une sombre magie dans un éclair destructeur et corrosif. Il s’agit d’un projectile magique avec Dégâts +5. Toutes les personnes touchées par le sort doivent réussir un test d’</span><span class=\"fontstyle2\">Endurance Intermédiaire (+0)</span><span class=\"fontstyle0\">,ou gagner 1 point de Corruption.</span></p>"
		},
		{
			"id": "Bolt of Corruption (Undivided)",
			"name": "Eclair de Corruption (Undivided)",
			"description": "<p><span class=\"fontstyle0\">Vous focalisez une sombre magie dans un éclair destructeur et corrosif. Il s’agit d’un projectile magique avec Dégâts +5. Toutes les personnes touchées par le sort doivent réussir un test d’</span><span class=\"fontstyle2\">Endurance Intermédiaire (+0)</span><span class=\"fontstyle0\">,ou gagner 1 point de Corruption.</span></p>"
		},
		{
			"id": "Boon of Tzeentch",
			"name": "Aubaine de Tzeentch",
			"description": "<p><span class=\"fontstyle0\">Vos paroles, imprégnées par la prescience labyrinthique de l’Architecte des Destinées, tordent votre esprit, vous donnant accès à un nouveau domaine d’arcane. Choisissez un sort provenant de n’importe quel Domaine (pour maintenir une fluidité de jeu, le Conteur peut fixer une limite de neuf secondes pour la décision).Tant qu’</span><em><span class=\"fontstyle2\">Aubaine de Tzeentch </span></em><span class=\"fontstyle0\">est actif, vous pouvez incanter ce nouveau sort comme si vous l’aviez mémorisé, mais sans pouvoir le copier dans un grimoire, un parchemin, ou autre. Si vous focalisez pour incanter, vous pouvez utiliser au choix Focalisation (</span><em><span class=\"fontstyle2\">Dhar</span></em><span class=\"fontstyle0\">) ou la focalisation adaptée au domaine du sort, si vous la possédez. <br></span></p>\n<p><span class=\"fontstyle0\">En cas d’incantation imparfaite en focalisant ou incantant ce nouveau sort, le sort </span><em><span class=\"fontstyle2\">Aubaine de Tzeentch </span></em><span class=\"fontstyle0\">quitte votre esprit avec dégout et s’efface de votre grimoire si jamais il avait autorisé son écriture à l’intérieur de celui-ci.</span></p>"
		},
		{
			"id": "Curse of Tzeentch",
			"name": "Malédiction de Tzeentch",
			"description": "<p><span class=\"fontstyle0\">Dans le Domaine de Tzeentch, tous les sorts proviennent en dernière instance de la volonté du Dieu et à ce titre ils lui appartiennent. En utilisant ce sort, un magus de Tzeentch peut amener un autre sorcier à perdre la connaissance et la capacité à incanter un sort qu’il avait déjà maitrisé.<br></span></p>\n<p><span class=\"fontstyle0\">Si l’incantation de la Malédiction de Tzeentch est réussie, le magus doit réussir un test opposé de </span><span class=\"fontstyle2\"><strong>Force Mentale</strong> </span><span class=\"fontstyle0\"> contre la cible. En cas de réussite, la cible perd l’accès à un sort aléatoirement choisi. Les effets de la Malédiction de Tzeentch durent un jour par DR obtenu au test opposé.</span></p>"
		},
		{
			"id": "Demonic Mien (Tzeentch)",
			"name": "Aspect Démoniaque (Tzeentch)",
			"description": "<p><span class=\"fontstyle0\">Vous canalisez la puissance mutagène du Chaos dans votre propre chair, sacrifiant temporairement votre enveloppe mortelle pour en faire un autel à la volonté de votre de dieu. Votre corps est déformé, arborant des traits d’un démon serviteur de votre divinité patronne. Jetez 1d10 sur la table <a class=\"table-click\" data-table=\"demonic-mien\"> Demonic Miens </a>et appliquez les traits adaptés pour la durée du sort. Pour chaque +2 </span><span class=\"fontstyle2\">DR </span><span class=\"fontstyle0\">vous pouvez étendre la durée du sort et lancer à nouveau 1d10 sur la table Demonic Miens. Si vous obtenez le trait&nbsp;</span><span class=\"fontstyle3\">@Compendium[wfrp4e.traits.v3uzEthcq0JRar0J]{Daemonic}&nbsp;</span><span class=\"fontstyle0\"> et que vous tombez à 0 Blessures, votre âme est aspirée dans les Royaumes du Chaos comme décrit dans les règles concernant les Traits de Créatures.</span></p>"
		},
		{
			"id": "Demonic Mien (Undivided)",
			"name": "Aspect Démoniaque (Undivided)",
			"description": "<p><span class=\"fontstyle0\">Vous canalisez la puissance mutagène du Chaos dans votre propre chair, sacrifiant temporairement votre enveloppe mortelle pour en faire un autel à la volonté de votre de dieu. Votre corps est déformé, arborant des traits d’un démon serviteur de votre divinité patronne. Jetez 1d10 sur la table <a class=\"table-click\" data-table=\"demonic-mien\"> Demonic Miens </a>et appliquez les traits adaptés pour la durée du sort. Pour chaque +2 </span><span class=\"fontstyle2\">DR </span><span class=\"fontstyle0\">vous pouvez étendre la durée du sort et lancer à nouveau 1d10 sur la table Demonic Miens. Si vous obtenez le trait&nbsp;</span><span class=\"fontstyle3\">@Compendium[wfrp4e.traits.v3uzEthcq0JRar0J]{Daemonic}&nbsp;</span><span class=\"fontstyle0\"> et que vous tombez à 0 Blessures, votre âme est aspirée dans les Royaumes du Chaos comme décrit dans les règles concernant les Traits de Créatures.</span></p>"
		},
		{
			"id": "Foul Messenger (Tzeentch)",
			"name": "Messager Infect (Tzeentch)",
			"description": "<p><span class=\"fontstyle0\">Vous conjurez devant vous une horde de démons mineurs enchainés à votre volonté. La forme des démons variera selon votre divinité. Les démons transporteront un cout message (environ 25 mots) à votre cible. Ceux-ci voyagent instantanément, sont invisibles (et inaudibles) pour tout le monde sauf pour ceux avec le talent</span><span class=\"fontstyle2\">Seconde Vue</span><span class=\"fontstyle0\"> ceci même au moment où ils transmettent leur message. Toute personne avec le talent peut faire un test de </span><strong><span class=\"fontstyle3\">Perception Difficile Difficile (-20)</span></strong><span class=\"fontstyle0\"><strong>Test</strong> pour repérer la horde et entendre leur message. Pour chaque +2DR obtenu vous pouvez doubler la longueur du message.</span></p>"
		},
		{
			"id": "Foul Messenger (Undivided)",
			"name": "Messager Infect (Undivided)",
			"description": "<p><span class=\"fontstyle0\">Vous conjurez devant vous une horde de démons mineurs enchainés à votre volonté. La forme des démons variera selon votre divinité. Les démons transporteront un cout message (environ 25 mots) à votre cible. Ceux-ci voyagent instantanément, sont invisibles (et inaudibles) pour tout le monde sauf pour ceux avec le talent</span><span class=\"fontstyle2\">Seconde Vue</span><span class=\"fontstyle0\"> ceci même au moment où ils transmettent leur message. Toute personne avec le talent peut faire un test de </span><strong><span class=\"fontstyle3\">Perception Difficile Difficile (-20)</span></strong><span class=\"fontstyle0\"><strong>Test</strong> pour repérer la horde et entendre leur message. Pour chaque +2DR obtenu vous pouvez doubler la longueur du message.</span></p>"
		},
		{
			"id": "Joyous Aspect (Tzeentch)",
			"name": "Aspect Joyeux (Tzeentch)",
			"description": "<p><span class=\"fontstyle0\">Le magus entoure la cible (éventuellement lui-même) d’une coiffe corrompue de </span><em><span class=\"fontstyle2\">Dhar</span></em><span class=\"fontstyle0\">teinté d’ </span><em><span class=\"fontstyle2\">Ulgu</span></em><span class=\"fontstyle0\">, ce qui l’enveloppe d’une aura de dissimulation. Tant que le sort fait effet, la cible apparait sans défaut ni imperfections. Les cicatrices, les déformations et, plus important, les mutations deviennent indétectables sauf par des moyens divins.&nbsp;</span></p>\n<p><span class=\"fontstyle0\">Bien que les déformations les plus visibles soient cachées, la cible peut apparaitre étrange ou bizarre, comme débordante de vitalité ou fabuleusement attrayante. Réussir un test de </span><strong><span class=\"fontstyle2\"> Perception Difficile (-20)</span></strong><span class=\"fontstyle0\"><strong>Test</strong> révèle que quelque chose n’est pas normal, sans pour autant préciser ce que c’est. Pour les Personnages avec le talent </span><em><span class=\"fontstyle3\">Seconde Vue </span></em><span class=\"fontstyle0\"> le test es&nbsp; <strong>C</strong></span><strong><span class=\"fontstyle2\">Intermédiaire (+0)</span></strong><span class=\"fontstyle0\">. En cas de succès, les personnages auront conscience qu’un sort est présent mais pas de ce qu’il dissimule.</span> </p>"
		},
		{
			"id": "Joyous Aspect (Undivided)",
			"name": "Aspect Joyeux (Undivided)",
			"description": "<p><span class=\"fontstyle0\">Le magus entoure la cible (éventuellement lui-même) d’une coiffe corrompue de </span><em><span class=\"fontstyle2\">Dhar</span></em><span class=\"fontstyle0\">teinté d’ </span><em><span class=\"fontstyle2\">Ulgu</span></em><span class=\"fontstyle0\">, ce qui l’enveloppe d’une aura de dissimulation. Tant que le sort fait effet, la cible apparait sans défaut ni imperfections. Les cicatrices, les déformations et, plus important, les mutations deviennent indétectables sauf par des moyens divins.&nbsp;</span></p>\n<p><span class=\"fontstyle0\">Bien que les déformations les plus visibles soient cachées, la cible peut apparaitre étrange ou bizarre, comme débordante de vitalité ou fabuleusement attrayante. Réussir un test de </span><strong><span class=\"fontstyle2\"> Perception Difficile (-20)</span></strong><span class=\"fontstyle0\"><strong>Test</strong> révèle que quelque chose n’est pas normal, sans pour autant préciser ce que c’est. Pour les Personnages avec le talent </span><em><span class=\"fontstyle3\">Seconde Vue </span></em><span class=\"fontstyle0\"> le test es&nbsp; <strong>C</strong></span><strong><span class=\"fontstyle2\">Intermédiaire (+0)</span></strong><span class=\"fontstyle0\">. En cas de succès, les personnages auront conscience qu’un sort est présent mais pas de ce qu’il dissimule.</span> </p>"
		},
		{
			"id": "Master of Fortune",
			"name": "Maître de la Chance",
			"description": "<p><span class=\"fontstyle0\">Les magus de Tzeentch négocient souvent avec leur maitre pour que ce dernier leur fournisse des aperçus de leur potentiel destin.  Faire de la divination sur ce sujet est dangereux car Tzeentch est un dieu capricieux, même à l’encontre de ses serviteurs favoris. Une fois que le sort est lancé, il ne peut plus être lancé à nouveau avant que sa durée expire.</span></p>\n<p><span class=\"fontstyle0\"><br>. Le résultat est déterminé par un test de </span><strong><span class=\"fontstyle2\">Langage (Magick) </span></strong><span class=\"fontstyle0\"> nécessaire pour incanter le sort. Pour chaque DR sur ce jet, le magus bénéficie d’un point de Fortune utilisable normalement pendant toute la durée du sort. Cependant, si l’incantation échoue, le magus reçoit 1 point de corruption pour chaque degré d’échec, alors que son esprit est troublé par des échos issus la vertigineuse gamme des futurs possibles.</span></p>"
		},
		{
			"id": "Mindfire",
			"name": "Esprit Enflammé",
			"description": "<p><span class=\"fontstyle0\">L’air se déforme autour du bout de vos doigts d’où l’énergie magique forme un éclair scintillant et brumeux qui peut être projeté sur votre cible. Toute personne affectée par </span><em><span class=\"fontstyle2\">Enflammé </span></em><span class=\"fontstyle0\">doit réussir un test de <strong>C</strong></span><strong><span class=\"fontstyle3\">Calme Intermédiaire (+0)</span></strong><span class=\"fontstyle0\">,ou gagner 1 point de Corruption. Pour chaque +2DR vous pouvez faire que votre cible gagne un point de corruption supplémentaire si le test de Calme a échoué. Si du fait du sort une mutation est déclenchée, la cible lance automatiquement sur la table des <a class=\"table-click\" data-table=\"expandedmutatemental\"> Mental Mutation </a>.Elle gagne en même temps +1 Etat </span><em><span class=\"fontstyle2\">Enflammé </span></em><span class=\"fontstyle0\"> alors que des flammes surnaturelles jaillissent depuis tous les orifices de sa tête.</span></p>"
		},
		{
			"id": "Obsession (Tzeentch)",
			"name": "Obsession (Tzeentch)",
			"description": "<p><span class=\"fontstyle0\">Vous devez posséder un objet cher ou précieux appartenant à la cible. Vous enroulez au sein de l’objet une magie infusée avec la matière brute du Chaos qui, à son tour, affecte la cible. Celle-ci devient obsédée par quelque chose : la nature en question de l’obsession dépend de la personnalité de la cible et de votre Domaine. Par exemple, incantée depuis le Domaine de Nurgle, </span><em><span class=\"fontstyle2\">Obsession </span></em><span class=\"fontstyle0\">pourrait amener une cible récemment blessée à devenir obsédée par le fait de gratter les croutes de ses blessures. Le domaine de Slaanesh pourrait amener un épicurien ou un gourmand à manger excessivement. </span></p>\n<p><span class=\"fontstyle0\"><br>La cible doit réussir un test d’</span><strong><span class=\"fontstyle3\">Endurance Accessible (+20) </span></strong><span class=\"fontstyle0\"><strong>Test</strong> chaque heure ou succomber à son obsession. Sur un échec, les tests suivants deviennent </span><strong><span class=\"fontstyle3\">Intermédiaire (+0)</span></strong><span class=\"fontstyle0\">. Chaque échec supplémentaire rend les futurs tests de plus en plus difficiles, jusque </span><strong><span class=\"fontstyle3\">Très Difficile (-30)</span></strong><span class=\"fontstyle0\">. Si jamais un échec critique survient lors d’un de ses test (échouer le jet en faisant un double), la cible devient complétement obsédée. Celle-ci ne peut rien faire que de céder à son obsession peu importe le cout ou les conséquences, et ceci pour 10-Bonus de Force Mentale heures (minimum 1 heure). A la fin du sort, en plus de toutes les conséquences physiques, sociales ou financières, la cible doit réussir un test d’  </span><strong><span class=\"fontstyle3\">Endurance Intermédiaire (+0) </span></strong><span class=\"fontstyle0\"><strong>Test</strong> ou gagner +1 point de corruption.<br></span></p>\n<p><span class=\"fontstyle0\">Une cible ne peut être affectée qu’une seule fois par ce sort pour chaque Domaine avec lequel il est incanté. Tout essai supplémentaire provenant du même Domaine sur la même cible avec ce sort n’a aucun effet.</span> </p>"
		},
		{
			"id": "Obsession (Undivided)",
			"name": "Obsession (Undivided)",
			"description": "<p><span class=\"fontstyle0\">Vous devez posséder un objet cher ou précieux appartenant à la cible. Vous enroulez au sein de l’objet une magie infusée avec la matière brute du Chaos qui, à son tour, affecte la cible. Celle-ci devient obsédée par quelque chose : la nature en question de l’obsession dépend de la personnalité de la cible et de votre Domaine. Par exemple, incantée depuis le Domaine de Nurgle, </span><em><span class=\"fontstyle2\">Obsession </span></em><span class=\"fontstyle0\">pourrait amener une cible récemment blessée à devenir obsédée par le fait de gratter les croutes de ses blessures. Le domaine de Slaanesh pourrait amener un épicurien ou un gourmand à manger excessivement. </span></p>\n<p><span class=\"fontstyle0\"><br>La cible doit réussir un test d’</span><strong><span class=\"fontstyle3\">Endurance Accessible (+20) </span></strong><span class=\"fontstyle0\"><strong>Test</strong> chaque heure ou succomber à son obsession. Sur un échec, les tests suivants deviennent </span><strong><span class=\"fontstyle3\">Intermédiaire (+0)</span></strong><span class=\"fontstyle0\">. Chaque échec supplémentaire rend les futurs tests de plus en plus difficiles, jusque </span><strong><span class=\"fontstyle3\">Très Difficile (-30)</span></strong><span class=\"fontstyle0\">. Si jamais un échec critique survient lors d’un de ses test (échouer le jet en faisant un double), la cible devient complétement obsédée. Celle-ci ne peut rien faire que de céder à son obsession peu importe le cout ou les conséquences, et ceci pour 10-Bonus de Force Mentale heures (minimum 1 heure). A la fin du sort, en plus de toutes les conséquences physiques, sociales ou financières, la cible doit réussir un test d’  </span><strong><span class=\"fontstyle3\">Endurance Intermédiaire (+0) </span></strong><span class=\"fontstyle0\"><strong>Test</strong> ou gagner +1 point de corruption.<br></span></p>\n<p><span class=\"fontstyle0\">Une cible ne peut être affectée qu’une seule fois par ce sort pour chaque Domaine avec lequel il est incanté. Tout essai supplémentaire provenant du même Domaine sur la même cible avec ce sort n’a aucun effet.</span> </p>"
		},
		{
			"id": "Pink Fire of Tzeentch",
			"name": "Flammes Roses de Tzeentch",
			"description": "<p><span class=\"fontstyle0\">Des éclairs tourbillonnants de flammes roses forment un arc émergeant depuis vos doigts tendus, ce qui amène la réalité à hurler de détresse. </span><em><span class=\"fontstyle2\">Flammes Roses de Tzeentch </span></em><span class=\"fontstyle0\">est un </span><em><span class=\"fontstyle2\">projectile magique</span></em><span class=\"fontstyle0\">. Les cibles touchées reçoivent un coup de dégâts +6 et gagnent +1 Etat </span><em><span class=\"fontstyle2\">Enflammé </span></em><span class=\"fontstyle0\">.</span></p>\n<p><span class=\"fontstyle0\"><br>Si un Personnage de taille Petite ou supérieure est amené à 0 Blessures par le sort, ou sous l’effet d’un Etat <em>Enflammé</em> dû aux </span><em><span class=\"fontstyle2\">Flammes Roses de Tzeentch</span></em><span class=\"fontstyle0\">, jetez <strong><a class=\"chat-roll\">1d10</a></strong>. Sur un résultat de 9, une Horreur Rose surgit, dévorant la chair hurlante du Personnage depuis l’intérieur. Ce dernier meurt sur le coup.</span></p>"
		},
		{
			"id": "Power of Chaos (Tzeentch)",
			"name": "Puissance du Chaos (Tzeentch)",
			"description": "<p><span class=\"fontstyle0\">Vous appelez les Puissances de la Ruine pour vous aider dans vos efforts en déchirant une partie de l’Aethyr. Tous les sorts incantés depuis Bonus de Sociabilité mètre du point ciblé ont leurs NI divisés par deux. Toute personne au sein de la Zone d’Effet doit réussir un test d’ </span><strong><span class=\"fontstyle2\">Endurance Accessible (+20) </span></strong><span class=\"fontstyle0\"><strong></strong>à la fin de chaque round ou gagner + 1 point de Corruption. Toute personne incantant un sort au sein de la Zone d’Effet, fait ses tests d’incantation à une difficulté </span><span class=\"fontstyle2\"><strong>Accessible (+20)</strong>.</span></p>"
		},
		{
			"id": "Power of Chaos (Undivided)",
			"name": "Puissance du Chaos (Undivided)",
			"description": "<p><span class=\"fontstyle0\">Vous appelez les Puissances de la Ruine pour vous aider dans vos efforts en déchirant une partie de l’Aethyr. Tous les sorts incantés depuis Bonus de Sociabilité mètre du point ciblé ont leurs NI divisés par deux. Toute personne au sein de la Zone d’Effet doit réussir un test d’ </span><strong><span class=\"fontstyle2\">Endurance Accessible (+20) </span></strong><span class=\"fontstyle0\"><strong></strong>à la fin de chaque round ou gagner + 1 point de Corruption. Toute personne incantant un sort au sein de la Zone d’Effet, fait ses tests d’incantation à une difficulté </span><span class=\"fontstyle2\"><strong>Accessible (+20)</strong>.</span></p>"
		},
		{
			"id": "Rend Aethyr (Tzeentch)",
			"name": "Déchirement d'Aethyr (Tzeentch)",
			"description": "<p><span class=\"fontstyle0\">Vos paroles immondes et malsaines déchirent le tissu de la réalité, créant une faille dans le monde à travers laquelle les serviteurs des Dieux Sombres sont libres de passer. Une déchirure en forme de portail menant à l’Aethyr apparait.</span></p>\n<p><span class=\"fontstyle0\"><br>A la fin de chaque tour, un Démon Mineur traverse le portail depuis les Royaumes du Chaos. Ces démons ne sont pas sous votre contrôle mais auront tendance à vous protéger et à attaquer vos ennemis, si c’est la volonté de votre maitre impie. Les démons invoqués dépendent de votre domaine du Chaos : Démonettes de Slaanesh, Portepestes de Nurgle, Horreurs de Tzeentch, Sanguinaires de Khorne et, pour les Magus du Chaos (Unifié) des Furies du Chaos. Tant que le sort fait effet, tous les démons invoqués sont immunisés à l’état </span><em><span class=\"fontstyle2\">Instable </span></em><span class=\"fontstyle0\">.</span></p>\n<p><span class=\"fontstyle0\"><br>Pour chaque +5 DR vous pouvez augmenter la vitesse d’arrivée des <br> démons de +1 par tour.</span></p>\n<p><span class=\"fontstyle0\"><br>Les créatures vivantes doivent réussir un test d’ </span><strong><span class=\"fontstyle3\">Endurance Accessible (+20) </span></strong><span class=\"fontstyle0\"> à la fin de chaque round où la faille est dans leur champ de vision ou gagner +1 point de Corruption. Toute créature vivante suffisamment folle ou malchanceuse pour traverser la faille tombe dans les Royaumes du Chaos et meurt instantanément sauf dépense d’un point de Destin. Si c’est le cas, ils sont recrachés dans le monde réel, peut-être sauvés par un pouvoir supérieur en vue d’un dessein encore inaccompli.</span></p>\n<p><span class=\"fontstyle0\"><br>En cas d’échec critique sur l’incantation de ce sort, les démons traversant la faille depuis les Royaumes du Chaos sont les serviteurs d’une divinité rivale et seront probablement immédiatement hostiles à leur invocateur!</span></p>"
		},
		{
			"id": "Rend Aethyr (Undivided)",
			"name": "Déchirement d'Aethyr (Undivided)",
			"description": "<p><span class=\"fontstyle0\">Vos paroles immondes et malsaines déchirent le tissu de la réalité, créant une faille dans le monde à travers laquelle les serviteurs des Dieux Sombres sont libres de passer. Une déchirure en forme de portail menant à l’Aethyr apparait.</span></p>\n<p><span class=\"fontstyle0\"><br>A la fin de chaque tour, un Démon Mineur traverse le portail depuis les Royaumes du Chaos. Ces démons ne sont pas sous votre contrôle mais auront tendance à vous protéger et à attaquer vos ennemis, si c’est la volonté de votre maitre impie. Les démons invoqués dépendent de votre domaine du Chaos : Démonettes de Slaanesh, Portepestes de Nurgle, Horreurs de Tzeentch, Sanguinaires de Khorne et, pour les Magus du Chaos (Unifié) des Furies du Chaos. Tant que le sort fait effet, tous les démons invoqués sont immunisés à l’état </span><em><span class=\"fontstyle2\">Instable </span></em><span class=\"fontstyle0\">.</span></p>\n<p><span class=\"fontstyle0\"><br>Pour chaque +5 DR vous pouvez augmenter la vitesse d’arrivée des <br> démons de +1 par tour.</span></p>\n<p><span class=\"fontstyle0\"><br>Les créatures vivantes doivent réussir un test d’ </span><strong><span class=\"fontstyle3\">Endurance Accessible (+20) </span></strong><span class=\"fontstyle0\"> à la fin de chaque round où la faille est dans leur champ de vision ou gagner +1 point de Corruption. Toute créature vivante suffisamment folle ou malchanceuse pour traverser la faille tombe dans les Royaumes du Chaos et meurt instantanément sauf dépense d’un point de Destin. Si c’est le cas, ils sont recrachés dans le monde réel, peut-être sauvés par un pouvoir supérieur en vue d’un dessein encore inaccompli.</span></p>\n<p><span class=\"fontstyle0\"><br>En cas d’échec critique sur l’incantation de ce sort, les démons traversant la faille depuis les Royaumes du Chaos sont les serviteurs d’une divinité rivale et seront probablement immédiatement hostiles à leur invocateur!</span>&nbsp;</p>"
		},
		{
			"id": "Sense the Skein",
			"name": "Sens de la Vie",
			"description": "<p><span class=\"fontstyle0\">Vos yeux brillent d’une lueur rose et bleue alors que vous prononcez des mots de pouvoir interdits.  Vos yeux se dessillent et pendant un court instant, vous percevez le destin interconnecté de toutes les choses. Vous pouvez choisir une cible à portée de vue, et le Conteur révélera la Motivation, l’Ambition à Court Terme et l’Ambition à Long Terme de celle-ci.</span> </p>"
		},
		{
			"id": "Slave to Darkness (Tzeentch)",
			"name": "Esclave des ténèbres (Tzeentch)",
			"description": "<p><span class=\"fontstyle0\">Vous implorez votre divinité tutélaire pour qu’elle s’empare de l’âme de votre cible et qu’elle la remplace par quelque chose de terrible. Vous devez réussir un jet opposé de </span><strong><span class=\"fontstyle2\">Force Mentale </span></strong><span class=\"fontstyle0\">, contre votre cible avec à minima +2 DR. En cas de succès l’âme de votre victime est envoyée hurlante dans les Royaumes du Chaos et le corps restant est possédé par un Démon. A part si la cible dépense un point de Destin, le contrôle du Personnage est donné au Conteur. Si vous ne remportez pas le jet opposé avec le seuil minimum de +2 DR, vous devez lancer un jet sur la table des <a class=\"table-click\" data-table=\"majormis\">Major Miscast</a>, et le sort échoue. En cas d’échec critique, votre dieu vous punit pour votre arrogance. Votre âme est arrachée de votre corps, condamnée à ne jamais y retourner sauf si vous dépensez un point de Destin pour résister. Ceci risque probablement d’irriter votre divinité, puisque par ce geste vous rejetez manifestement son autorité<br></span></p>\n<p><span class=\"fontstyle0\">Du fait des risques et limitations inhérents à ce sortilège, il est généralement incanté sur des victimes qui ont été “préparées” pour le sacrifice. Que ce soit en étant attachées, droguées, ou bien tranquillisées par d’autres moyens.</span></p>"
		},
		{
			"id": "Slave to Darkness (Undivided)",
			"name": "Esclave des ténèbres (Undivided)",
			"description": "<p><span class=\"fontstyle0\">Vous implorez votre divinité tutélaire pour qu’elle s’empare de l’âme de votre cible et qu’elle la remplace par quelque chose de terrible. Vous devez réussir un jet opposé de </span><strong><span class=\"fontstyle2\">Force Mentale </span></strong><span class=\"fontstyle0\">, contre votre cible avec à minima +2 DR. En cas de succès l’âme de votre victime est envoyée hurlante dans les Royaumes du Chaos et le corps restant est possédé par un Démon. A part si la cible dépense un point de Destin, le contrôle du Personnage est donné au Conteur. Si vous ne remportez pas le jet opposé avec le seuil minimum de +2 DR, vous devez lancer un jet sur la table des <a class=\"table-click\" data-table=\"majormis\">Major Miscast</a>, et le sort échoue. En cas d’échec critique, votre dieu vous punit pour votre arrogance. Votre âme est arrachée de votre corps, condamnée à ne jamais y retourner sauf si vous dépensez un point de Destin pour résister. Ceci risque probablement d’irriter votre divinité, puisque par ce geste vous rejetez manifestement son autorité<br></span></p>\n<p><span class=\"fontstyle0\">Du fait des risques et limitations inhérents à ce sortilège, il est généralement incanté sur des victimes qui ont été “préparées” pour le sacrifice. Que ce soit en étant attachées, droguées, ou bien tranquillisées par d’autres moyens.</span></p>"
		},
		{
			"id": "The Flickering Flames of Fickle Fate",
			"name": "Flammes Vacillantes du Destin",
			"description": "<p><span class=\"fontstyle0\">Vous conjurez devant vous un torrent de feu magique qui crépite, craquète et flambe sans aucun combustible. Le feu n’a pas de propriétés physiques et ne brûle pas, ne cause pas de dommages, ni n’émet de la chaleur. Toutes les créatures vivantes et les démons qui ont le feu dans leur ligne de vue peuvent choisir de rejeter tous les tests une seule fois, comme s’ils utilisaient un Point de Chance. A chaque fois qu’ils utilisent ceci, ils doivent réussir un jet d’</span><strong><span class=\"fontstyle2\">Endurance Intermédiaire (+0) </span></strong><span class=\"fontstyle0\">ou gagner +1 point de Corruption. Les personnages porteurs de la Marque de Tzeentch sont immunisés à cette corruption. Le test visant à résister au gain de Corruption ne peut pas être relancé en utilisant l’effet des Flammes Vacillantes du Destin.</span></p>"
		},
		{
			"id": "Transformation of Tzeentch",
			"name": "Transformation de Tzeentch",
			"description": "<p><span class=\"fontstyle0\">Sur votre ordre, des liens de feu Aethéryques surgissent du sol et s’enroulent autour de votre cible, l’engloutissant dans cocon d’énergie magique. Les cibles touchées gagnent l’état </span><em><span class=\"fontstyle2\">A Terre </span></em><span class=\"fontstyle0\">, et sont considérées comme Sans Défense pendant la durée du sort. Quand </span><em><span class=\"fontstyle2\">Transformation de Tzeentch </span></em><span class=\"fontstyle0\"> se termine, la cible doit réussir un jet d’ </span><strong><span class=\"fontstyle3\">Endurance Intermédiaire (+0) </span></strong><span class=\"fontstyle0\">, opposé à votre score de Langage (Magick). En cas d’échec , celle-ci gagne + 1 point de corruption et +1 point supplémentaire par DR d’échec. </span></p>"
		},
		{
			"id": "Tzeentch's Firestorm",
			"name": "Tempête de feu de Tzeentch",
			"description": "<p><span class=\"fontstyle0\">Une tempête de feu arcanique violet tourbillonne devant vous, invoquée par vos jacassements blasphématoires. </span><em><span class=\"fontstyle2\">Tempête de feu de Tzeentch </span></em><span class=\"fontstyle0\">est un </span><em><span class=\"fontstyle2\">projectile magique</span></em><span class=\"fontstyle0\">. Toutes les personnes situées dans une zone de Bonus d’Initiative mètre de la cible subissent un coup avec +9 Dégâts et gagnent + 1 état </span><em><span class=\"fontstyle2\">Enflammé </span></em><span class=\"fontstyle0\">.</span></p>\n<p><span class=\"fontstyle0\"><br>Si un Personnage de taille Petite ou supérieure est amené à 0 Blessures par le sort, ou sous l’effet d’un état <em>Enflammé </em> dû à la </span><em><span class=\"fontstyle2\">Tempête de feu de Tzeentch</span></em><span class=\"fontstyle0\">, jetez un <strong><a class=\"chat-roll\">1d10</a></strong>. Sur un résultat de 9, deux Horreurs Rose surgissent du corps brulant de la cible. Cette dernière meurt sur le coup.</span></p>"
		},
		{
			"id": "Tzeentch's Golden Aura",
			"name": "Aura Doré de Tzeentch",
			"description": "<p><span class=\"fontstyle0\">Parmi l’arsenal d’un magus de Tzeentch, ce sort est un des plus simples et pratiques. Un vortex tourbillonnant de feu jaune est invoqué depuis l’Aethyr et enveloppe le corps du sorcier, le protégeant des coups et des projectiles. Tant que le sort fait effet, le magus bénéficie du Trait de Créature @Compendium[wfrp4e.traits.Bvd2aZ0gQUXHfCTh]{Ward 9+}</span><span class=\"fontstyle2\">&nbsp;</span><span class=\"fontstyle0\">.</span></p>"
		},
		{
			"id": "Word of Tzeentch",
			"name": "Mot de Tzeentch",
			"description": "<p><span class=\"fontstyle0\">Alors que votre langue scande les motifs sonores distordus de ce sort blasphématoire, deux voix semblent jaillir depuis votre gorge, dans une harmonie impie et surnaturelle l’une avec l’autre. Vos paroles ont un sens supplémentaire pour tous ceux affectés par le sortilège, bien que les cibles n’arrivent jamais à se rappeler ce qui s’est dit. Elles sont la cible d’un sentiment entêtant d’appréhension, comme si elles avaient oublié quelque chose d’essentiel concernant leur futur. </span></p>\n<p><span class=\"fontstyle0\"><br>. Les créatures vivantes affectées par le sort doivent réussir un test opposé d’</span><strong><span class=\"fontstyle2\"> Intelligence </span></strong><span class=\"fontstyle0\"> contre vous. En cas d’échec, la cible gagne +1 état </span><em><span class=\"fontstyle3\">Assommé </span></em><span class=\"fontstyle0\">  et +1 Etat supplémentaire par DR d’échec. En cas d’échec critique, elle gagne l’Etat </span><em><span class=\"fontstyle3\">Inconscient </span></em><span class=\"fontstyle0\">, et + 1 Point de Corruption.<br></span></p>\n<p><span class=\"fontstyle0\">Une fois tous les états supprimés, la cible doit réussir un test d’</span><strong><span class=\"fontstyle2\">Endurance Accessible (+20) </span></strong><span class=\"fontstyle0\">, ou gagner +1 point de Corruption. En d’échec critique sur ce jet, la cible gagne immédiatement une mutation de catégorie mentale et ne peut pas choisir d’Ambition de Court Terme pour les <strong><a class=\"chat-roll\">1d10</a></strong> prochaines semaines.</span></p>"
		}
	]
}
